{
	"info": {
		"_postman_id": "7127096b-2cf5-4ccf-a65a-58a367dc5028",
		"name": "BackEnd Practitioner",
		"description": "### COLECCION DE LA PRACTICA DEL CURSO BACKEND PRACTITIONER.",
		"schema": "https://schema.getpostman.com/json/collection/v2.1.0/collection.json"
	},
	"item": [
		{
			"name": "1.Saludos",
			"request": {
				"method": "GET",
				"header": [],
				"url": {
					"raw": "{{URL}}/saludos/saludo?nombre=Nestor",
					"host": [
						"{{URL}}"
					],
					"path": [
						"saludos",
						"saludo"
					],
					"query": [
						{
							"key": "nombre",
							"value": "Nestor"
						}
					]
				},
				"description": "Primera demo {{URL}}/saludos/saludo"
			},
			"response": []
		},
		{
			"name": "2.Saludo1",
			"request": {
				"method": "GET",
				"header": [],
				"url": {
					"raw": "{{URL}}/saludos/saludo1",
					"host": [
						"{{URL}}"
					],
					"path": [
						"saludos",
						"saludo1"
					]
				}
			},
			"response": []
		},
		{
			"name": "3.Saludo2",
			"request": {
				"method": "GET",
				"header": [],
				"url": {
					"raw": "{{URL}}/saludos/saludo2?nombre=Jose Juan",
					"host": [
						"{{URL}}"
					],
					"path": [
						"saludos",
						"saludo2"
					],
					"query": [
						{
							"key": "nombre",
							"value": "Jose Juan"
						}
					]
				}
			},
			"response": []
		},
		{
			"name": "4.Saludo3",
			"request": {
				"method": "GET",
				"header": [],
				"url": {
					"raw": "{{URL}}/saludos/saludo3",
					"host": [
						"{{URL}}"
					],
					"path": [
						"saludos",
						"saludo3"
					],
					"query": [
						{
							"key": "",
							"value": null,
							"disabled": true
						}
					]
				}
			},
			"response": []
		},
		{
			"name": "5.MultiSaludos",
			"request": {
				"method": "GET",
				"header": [],
				"url": {
					"raw": "{{URL}}/saludos/multisaludo?nombre=Javier&apellido=López&apellido2=Garcia",
					"host": [
						"{{URL}}"
					],
					"path": [
						"saludos",
						"multisaludo"
					],
					"query": [
						{
							"key": "nombre",
							"value": "Javier"
						},
						{
							"key": "apellido",
							"value": "López"
						},
						{
							"key": "apellido2",
							"value": "Garcia"
						}
					]
				}
			},
			"response": []
		},
		{
			"name": "6.Lista de saludos",
			"request": {
				"method": "GET",
				"header": [],
				"url": {
					"raw": "{{URL}}/saludos/saludos?nombres=Javier,Juan,Jose",
					"host": [
						"{{URL}}"
					],
					"path": [
						"saludos",
						"saludos"
					],
					"query": [
						{
							"key": "apellido",
							"value": "López",
							"disabled": true
						},
						{
							"key": "apellido2",
							"value": "Garcia",
							"disabled": true
						},
						{
							"key": "nombres",
							"value": "Javier,Juan,Jose"
						}
					]
				}
			},
			"response": []
		},
		{
			"name": "7.Lista de saludos con for",
			"request": {
				"method": "GET",
				"header": [],
				"url": {
					"raw": "{{URL}}/saludos/saludos?nombres=Javier,Juan,Jose",
					"host": [
						"{{URL}}"
					],
					"path": [
						"saludos",
						"saludos"
					],
					"query": [
						{
							"key": "apellido",
							"value": "López",
							"disabled": true
						},
						{
							"key": "apellido2",
							"value": "Garcia",
							"disabled": true
						},
						{
							"key": "nombres",
							"value": "Javier,Juan,Jose"
						}
					]
				}
			},
			"response": []
		},
		{
			"name": "7.Empleados",
			"request": {
				"method": "GET",
				"header": [],
				"url": {
					"raw": "{{URL}}/v1/empleados/",
					"host": [
						"{{URL}}"
					],
					"path": [
						"v1",
						"empleados",
						""
					],
					"query": [
						{
							"key": "apellido",
							"value": "López",
							"disabled": true
						},
						{
							"key": "apellido2",
							"value": "Garcia",
							"disabled": true
						}
					]
				},
				"description": "Practica empleados\r\n"
			},
			"response": []
		},
		{
			"name": "8.EmpleadobyId  ",
			"request": {
				"method": "GET",
				"header": [],
				"url": {
					"raw": "{{URL}}/v1/empleados/1/",
					"host": [
						"{{URL}}"
					],
					"path": [
						"v1",
						"empleados",
						"1",
						""
					],
					"query": [
						{
							"key": "apellido",
							"value": "López",
							"disabled": true
						},
						{
							"key": "apellido2",
							"value": "Garcia",
							"disabled": true
						}
					]
				}
			},
			"response": []
		},
		{
			"name": "9.PostEmpleado",
			"request": {
				"method": "POST",
				"header": [],
				"body": {
					"mode": "raw",
					"raw": "{\r\n    \"id\": 1,\r\n    \"nombre\": \"Carlos\",\r\n    \"apellidos\": \"Márquez\",\r\n    \"email\": \"carlos@techuniversity.com\"\r\n}",
					"options": {
						"raw": {
							"language": "json"
						}
					}
				},
				"url": {
					"raw": "{{URL}}/v1/empleados/",
					"host": [
						"{{URL}}"
					],
					"path": [
						"v1",
						"empleados",
						""
					],
					"query": [
						{
							"key": "apellido",
							"value": "López",
							"disabled": true
						},
						{
							"key": "apellido2",
							"value": "Garcia",
							"disabled": true
						}
					]
				}
			},
			"response": []
		},
		{
			"name": "10.PutEmpleado",
			"request": {
				"method": "PUT",
				"header": [],
				"body": {
					"mode": "raw",
					"raw": "{\r\n    \"id\": 2,\r\n    \"nombre\": \"Carlos\",\r\n    \"apellidos\": \"Márquez\",\r\n    \"email\": \"carlos@techuniversity.com\"\r\n}",
					"options": {
						"raw": {
							"language": "json"
						}
					}
				},
				"url": {
					"raw": "{{URL}}/v1/empleados/",
					"host": [
						"{{URL}}"
					],
					"path": [
						"v1",
						"empleados",
						""
					],
					"query": [
						{
							"key": "apellido",
							"value": "López",
							"disabled": true
						},
						{
							"key": "apellido2",
							"value": "Garcia",
							"disabled": true
						}
					]
				}
			},
			"response": []
		},
		{
			"name": "11.PutEmpleadoById",
			"request": {
				"method": "PUT",
				"header": [],
				"body": {
					"mode": "raw",
					"raw": "{\r\n    \"id\": 4,\r\n    \"nombre\": \"Carlos\",\r\n    \"apellidos\": \"Márquez\",\r\n    \"email\": \"carlos@techuniversity.com\"\r\n}",
					"options": {
						"raw": {
							"language": "json"
						}
					}
				},
				"url": {
					"raw": "{{URL}}/v1/empleados/4/",
					"host": [
						"{{URL}}"
					],
					"path": [
						"v1",
						"empleados",
						"4",
						""
					],
					"query": [
						{
							"key": "apellido",
							"value": "López",
							"disabled": true
						},
						{
							"key": "apellido2",
							"value": "Garcia",
							"disabled": true
						}
					]
				}
			},
			"response": []
		},
		{
			"name": "12.DeleteEmpleadoById",
			"request": {
				"method": "PUT",
				"header": [],
				"body": {
					"mode": "raw",
					"raw": "",
					"options": {
						"raw": {
							"language": "json"
						}
					}
				},
				"url": {
					"raw": "{{URL}}/v1/empleados/4/",
					"host": [
						"{{URL}}"
					],
					"path": [
						"v1",
						"empleados",
						"4",
						""
					],
					"query": [
						{
							"key": "apellido",
							"value": "López",
							"disabled": true
						},
						{
							"key": "apellido2",
							"value": "Garcia",
							"disabled": true
						}
					]
				}
			},
			"response": []
		},
		{
			"name": "13.PatchEmpleados",
			"request": {
				"method": "PATCH",
				"header": [],
				"body": {
					"mode": "raw",
					"raw": "{\r\n    \"apellidos\":\"Ramirez\"\r\n}",
					"options": {
						"raw": {
							"language": "json"
						}
					}
				},
				"url": {
					"raw": "{{URL}}/v1/empleados/2",
					"host": [
						"{{URL}}"
					],
					"path": [
						"v1",
						"empleados",
						"2"
					],
					"query": [
						{
							"key": "apellido",
							"value": "López",
							"disabled": true
						},
						{
							"key": "apellido2",
							"value": "Garcia",
							"disabled": true
						}
					]
				}
			},
			"response": []
		},
		{
			"name": "14.FormacionEmpleadobyId",
			"request": {
				"method": "GET",
				"header": [],
				"url": {
					"raw": "{{URL}}/v1/empleados/3/formaciones",
					"host": [
						"{{URL}}"
					],
					"path": [
						"v1",
						"empleados",
						"3",
						"formaciones"
					],
					"query": [
						{
							"key": "apellido",
							"value": "López",
							"disabled": true
						},
						{
							"key": "apellido2",
							"value": "Garcia",
							"disabled": true
						}
					]
				}
			},
			"response": []
		},
		{
			"name": "15.AddFormacionEmpleadobyId",
			"request": {
				"method": "POST",
				"header": [],
				"body": {
					"mode": "raw",
					"raw": "{\r\n    \"fecha\":\"2021-05-18\",\r\n    \"titulo\":\"Curso SQL\"\r\n}",
					"options": {
						"raw": {
							"language": "json"
						}
					}
				},
				"url": {
					"raw": "{{URL}}/v1/empleados/3/formaciones/",
					"host": [
						"{{URL}}"
					],
					"path": [
						"v1",
						"empleados",
						"3",
						"formaciones",
						""
					],
					"query": [
						{
							"key": "apellido",
							"value": "López",
							"disabled": true
						},
						{
							"key": "apellido2",
							"value": "Garcia",
							"disabled": true
						}
					]
				}
			},
			"response": []
		},
		{
			"name": "15.GetTitulosEmpleados",
			"request": {
				"method": "GET",
				"header": [],
				"url": {
					"raw": "{{URL}}/v1/empleados/titulo",
					"host": [
						"{{URL}}"
					],
					"path": [
						"v1",
						"empleados",
						"titulo"
					],
					"query": [
						{
							"key": "apellido",
							"value": "López",
							"disabled": true
						},
						{
							"key": "apellido2",
							"value": "Garcia",
							"disabled": true
						}
					]
				}
			},
			"response": []
		}
	]
}